/* XPM */
static char *right_active[] = {
/* columns rows colors chars-per-pixel */
"8 8 5 1 ",
"  c black",
". c #3FCEF2",
"X c #B9D1EA",
"o c #BAD1EA",
"O c #BAD2EA",
/* pixels */
"XXOOOO. ",
"XXooOO. ",
"XXXoOO. ",
"XXXoOO. ",
"XoOOOO. ",
"XoOOOO. ",
"XoOOOO. ",
"XoOOOO. "
};
